"Id";"Designator";"Package";"Quantity";"Designation";"Supplier and ref";
1;"H1,H2,H3,H4";"NPTH_3mm_ID";4;"3mm_Mounting_Hole";;;
2;"C1";"CP_Elec_3x5.3";1;"100nf";;;
3;"IC1";"MS5607-02BA03";1;"MS560702BA03-50";;;
4;"U1";"SON100P300X300X113-7N";1;"HPP845E131R5";;;
5;"J3";"PinSocket_2x20_P2.54mm_Vertical";1;"40HAT";;;
